{
  "project_info": {
    "project_number": "789730205469",
    "firebase_url": "https://skywallpaperhd-default-rtdb.firebaseio.com",
    "project_id": "skywallpaperhd",
    "storage_bucket": "skywallpaperhd.appspot.com"
  },
  "client": [
    {
      "client_info": {
        "mobilesdk_app_id": "1:789730205469:android:31988a38ee3b1bcc3e0bf4",
        "android_client_info": {
          "package_name": "com.anhttvn.skyWallpaperHD"
        }
      },
      "oauth_client": [
        {
          "client_id": "789730205469-h78qtrpi82khgbqctpfsufr7qmejcppj.apps.googleusercontent.com",
          "client_type": 3
        }
      ],
      "api_key": [
        {
          "current_key": "AIzaSyAzZKo0B3bHGGgra9dH53c_m5vCVy84ZVM"
        }
      ],
      "services": {
        "appinvite_service": {
          "other_platform_oauth_client": [
            {
              "client_id": "789730205469-h78qtrpi82khgbqctpfsufr7qmejcppj.apps.googleusercontent.com",
              "client_type": 3
            }
          ]
        }
      }
    }
  ],
  "configuration_version": "1"
}